﻿Bildnamn;streckkodsnamn;miljövärde
Avokado Europa;999000;0
Avokado Världen;999001;-2
Apelsin Europa;999002;0
Apelsin Världen;999003;-2
Creme Fraiche Lokal;999004;4
Creme Fraiche Sverige;999005;0
Creme Fraiche Europa;999006;-2
Bananer Europa;999007;0
Bananer Världen;999008;-2
Gurka Lokal;999009;4
Gurka Sverige;999010;2
Gurka Europa;999011;0
Köttfärs Lokalt;999012;4
Köttfärs Sverige;999013;2
Köttfärs Världen;999014;-2
Lök Sverige;999015;2
Lök Europa;999016;0
Lök Världen;999017;-2
Majschips Europa;999018;0
Majchips Världen;999019;-2
Majs Europa;999020;0
Majs Världen;999021;-2
Mjölk Lokalt;999022;4
Mjölk Sverige;999023;2
Mjölk Europa;999024;0
Morötter Lokalt;999025;4
Morötter Sverige;999026;2
Morötter Europa;999027;0
Ost Lokalt;999028;4
Ost Sverige;999029;2
Ost Europa;999030;0
Potatis Lokalt;999031;4
Potatis Sverige;999032;2
Potatis Europa;999033;0
Sallad Sverige;999034;2
Sallad Europa;999035;0
Sallad Världen;999036;-2
Strösocker Sverige;999037;2
Strösocker Europa;999038;0
Strösocker Världen;999039;-2
Tacosås Europa;999040;0
Tacosås Världen;999041;-2
Taco Krydda Europa;999042;0
Taco Krydda Världen;999043;-2
Tomater Sverige;999044;2
Tomater Europa;999045;0
Tomater Världen;999046;-2
Vetemjöl Sverige;999047;2
Vetemjöl Europa;999048;0
Vetemjöl Världen;999049;-2
Ärtor Sverige;999050;2
Ärtor Europa;999051;0
Ärtor Världen;999052;-2
Äpplen Lokalt;999053;4
Äpplen Europa;999054;0
Äpplen Världen;999055;-2
Ägg Lokalt;999056;4
Ägg Sverige;999057;2
Ägg Europa;999058;0
